public class SumOfBothDiagonal
{
public static void main(String args[])
int d[][]={ {1,2,3},{4,5,6},{7,8,9} };
int k=0,j=0;
int sum1 = 0, sum2 = 0;
for(j=0; j<d.length;j++)
{
for(k=0;k<d.length;k++)
System.out.println(d[j][k] + " ");
System.out.println();
}
for(j=0;j<d.length;j++)
{
sum1=sum1 + d[j][j];
}
k=d.length - 1;
for(j =0;; j<d.length;j++)
{
if(k>=0)
{
sum2 = sum2 + d[j][k];
k--;
}
}
System.out.println("Sum of Diagonal elements are: " + sum1 + " and " + sum2);
}}